{
  "project_info": {
    "project_number": "644983599736",
    "firebase_url": "https://oneqlikgpsparents.firebaseio.com",
    "project_id": "oneqlikgpsparents",
    "storage_bucket": "oneqlikgpsparents.appspot.com"
  },
  "client": [
    {
      "client_info": {
        "mobilesdk_app_id": "1:644983599736:android:9b04c0d24a97a854",
        "android_client_info": {
          "package_name": "com.OneQlikVTS.ionic"
        }
      },
      "oauth_client": [
        {
          "client_id": "644983599736-reujtdsm01muvecuan2ophu7dqfc41g0.apps.googleusercontent.com",
          "client_type": 3
        }
      ],
      "api_key": [
        {
          "current_key": "AIzaSyBQHVM3Kv8VwprWxS3RHm_3YOshverbCbY"
        }
      ],
      "services": {
        "analytics_service": {
          "status": 1
        },
        "appinvite_service": {
          "status": 1,
          "other_platform_oauth_client": []
        },
        "ads_service": {
          "status": 2
        }
      }
    },
    {
      "client_info": {
        "mobilesdk_app_id": "1:644983599736:android:ee4b3e4c019f83a7",
        "android_client_info": {
          "package_name": "com.ePayGPS.ionic"
        }
      },
      "oauth_client": [
        {
          "client_id": "644983599736-reujtdsm01muvecuan2ophu7dqfc41g0.apps.googleusercontent.com",
          "client_type": 3
        }
      ],
      "api_key": [
        {
          "current_key": "AIzaSyBQHVM3Kv8VwprWxS3RHm_3YOshverbCbY"
        }
      ],
      "services": {
        "analytics_service": {
          "status": 1
        },
        "appinvite_service": {
          "status": 1,
          "other_platform_oauth_client": []
        },
        "ads_service": {
          "status": 2
        }
      }
    },
    {
      "client_info": {
        "mobilesdk_app_id": "1:644983599736:android:99927c9548218fa9",
        "android_client_info": {
          "package_name": "com.safety.ionic"
        }
      },
      "oauth_client": [
        {
          "client_id": "644983599736-reujtdsm01muvecuan2ophu7dqfc41g0.apps.googleusercontent.com",
          "client_type": 3
        }
      ],
      "api_key": [
        {
          "current_key": "AIzaSyBQHVM3Kv8VwprWxS3RHm_3YOshverbCbY"
        }
      ],
      "services": {
        "analytics_service": {
          "status": 1
        },
        "appinvite_service": {
          "status": 1,
          "other_platform_oauth_client": []
        },
        "ads_service": {
          "status": 2
        }
      }
    },
    {
      "client_info": {
        "mobilesdk_app_id": "1:644983599736:android:c51053f2d95cbce3",
        "android_client_info": {
          "package_name": "com.upplex.trackup"
        }
      },
      "oauth_client": [
        {
          "client_id": "644983599736-reujtdsm01muvecuan2ophu7dqfc41g0.apps.googleusercontent.com",
          "client_type": 3
        }
      ],
      "api_key": [
        {
          "current_key": "AIzaSyBQHVM3Kv8VwprWxS3RHm_3YOshverbCbY"
        }
      ],
      "services": {
        "analytics_service": {
          "status": 1
        },
        "appinvite_service": {
          "status": 1,
          "other_platform_oauth_client": []
        },
        "ads_service": {
          "status": 2
        }
      }
    },
    {
      "client_info": {
        "mobilesdk_app_id": "1:644983599736:android:d4f1e436dfc616a6",
        "android_client_info": {
          "package_name": "io.ionic.oneQlickGpsParents"
        }
      },
      "oauth_client": [
        {
          "client_id": "644983599736-reujtdsm01muvecuan2ophu7dqfc41g0.apps.googleusercontent.com",
          "client_type": 3
        }
      ],
      "api_key": [
        {
          "current_key": "AIzaSyBQHVM3Kv8VwprWxS3RHm_3YOshverbCbY"
        }
      ],
      "services": {
        "analytics_service": {
          "status": 1
        },
        "appinvite_service": {
          "status": 1,
          "other_platform_oauth_client": []
        },
        "ads_service": {
          "status": 2
        }
      }
    }
  ],
  "configuration_version": "1"
}